Introduction to tenm package • tenm
…
Extract environmental data by date

Function to extract environmental data by date. This function
generates training and testing data sets of environmental information
for each year, using a random partition with a define proportion.

future::plan("multisession",workers=10)
abex <- tenm::ex_by_date(this_species = abtc,train_prop=0.7)
future::plan("sequential")
print(abex)
#> $temporal_df
#> # A tibble: 40 × 26
#>    decimalLongitude decimalLatitude  year layer_dates layers_path  cell_ids_year
#>               <dbl>           <dbl> <int> <date>      <chr>                <dbl>
#>  1            -97.3            18.7  1939 1939-01-01  /home/runne…           272
#>  2            -97.3            18.7  1940 1940-01-01  /home/runne…           272
#>  3            -97.0            19.6  1941 1941-01-01  /home/runne…           173
#>  4            -97.3            18.7  1941 1941-01-01  /home/runne…           271
#>  5            -97.3            18.7  1950 1950-01-01  /home/runne…           272
#>  6            -97.1            19.7  1950 1950-01-01  /home/runne…           173
#>  7            -97.4            18.5  1952 1952-01-01  /home/runne…           291
#>  8            -97.3            18.7  1963 1963-01-01  /home/runne…           272
#>  9            -97.3            18.7  1969 1969-01-01  /home/runne…           271
#> 10            -97.3            18.7  1970 1970-01-01  /home/runne…           272
#> # ℹ 30 more rows
#> # ℹ 20 more variables: bio_01 <int>, bio_02 <int>, bio_03 <int>, bio_04 <int>,
#> #   bio_05 <int>, bio_06 <int>, bio_07 <int>, bio_08 <int>, bio_09 <int>,
#> #   bio_10 <int>, bio_11 <int>, bio_12 <int>, bio_13 <int>, bio_14 <int>,
#> #   bio_15 <int>, bio_16 <int>, bio_17 <int>, bio_18 <int>, bio_19 <int>,
#> #   trian_test <chr>
#> 
#> $sp_date_var
#> [1] "year"
#> 
#> $lon_lat_vars
#> [1] "decimalLongitude" "decimalLatitude" 
#> 
#> $layers_ext
#> [1] "*.tif$"
#> 
#> $env_data
#> # A tibble: 40 × 20
#>    bio_01 bio_02 bio_03 bio_04 bio_05 bio_06 bio_07 bio_08 bio_09 bio_10 bio_11
#>     <int>  <int>  <int>  <int>  <int>  <int>  <int>  <int>  <int>  <int>  <int>
#>  1    149     84     55   2252    214     61    153    171    128    171    119
#>  2    154     87     49   2575    229     53    177    176    149    178    118
#>  3    114     63     44   2693    175     31    145    124     96    142     79
#>  4    139     82     50   2394    209     46    163    156    111    162    107
#>  5    155     94     54   2079    232     57    175    172    129    175    129
#>  6    115     79     51   2278    179     26    154    133     90    137     87
#>  7    159     95     59   1641    237     75    162    173    140    174    139
#>  8    155     85     51   2277    235     66    169    174    136    178    123
#>  9    141     89     57   1952    212     57    155    152    116    162    115
#> 10    153     92     54   2101    235     67    169    169    141    170    125
#> # ℹ 30 more rows
#> # ℹ 9 more variables: bio_12 <int>, bio_13 <int>, bio_14 <int>, bio_15 <int>,
#> #   bio_16 <int>, bio_17 <int>, bio_18 <int>, bio_19 <int>, trian_test <chr>
…
